RISC_V/RISC_V_tb.vcd
$date
	Wed Dec 28 00:15:30 2022
$end
$version
	Icarus Verilog
$end
$timescale
	1ps
$end
$scope module RISC_V_tb $end
$var wire 32 ! instruction [31:0] $end
$var wire 1 " ins_memfull $end
$var wire 32 # dato_data [31:0] $end
$var wire 1 $ data_memfull $end
$var reg 8 % addr_data [7:0] $end
$var reg 8 & addr_ins [7:0] $end
$var reg 8 ' address [7:0] $end
$var reg 1 ( clock $end
$var reg 32 ) dati_data [31:0] $end
$var reg 32 * dati_ins [31:0] $end
$var reg 1 + mem_clr_n $end
$var reg 1 , read_data $end
$var reg 1 - reset_n $end
$var reg 1 . write_data $end
$var reg 1 / write_ins $end
$var integer 32 0 tmp [31:0] $end
$var integer 32 1 tmp1 [31:0] $end
$scope module comp0 $end
$var wire 8 2 addr_data [7:0] $end
$var wire 8 3 addr_ins [7:0] $end
$var wire 1 ( clock $end
$var wire 32 4 dati_data [31:0] $end
$var wire 32 5 dati_ins [31:0] $end
$var wire 32 6 dato_data [31:0] $end
$var wire 1 7 funct3_valid $end
$var wire 1 8 funct7_valid $end
$var wire 1 9 imm_valid $end
$var wire 8 : insi_addr [7:0] $end
$var wire 32 ; inst_in [31:0] $end
$var wire 1 < inst_rden $end
$var wire 32 = instr [31:0] $end
$var wire 1 > is_i_instr $end
$var wire 1 ? is_r_instr $end
$var wire 1 @ is_s_instr $end
$var wire 1 A is_u_instr $end
$var wire 32 B ld_data [31:0] $end
$var wire 1 + mem_clr_n $end
$var wire 1 C rd_valid $end
$var wire 1 , read_data $end
$var wire 1 - reset_n $end
$var wire 1 D rs1_valid $end
$var wire 1 E rs2_valid $end
$var wire 1 . write_data $end
$var wire 1 / write_ins $end
$var wire 1 F taken_br $end
$var wire 32 G src2_value [31:0] $end
$var wire 32 H src1_value [31:0] $end
$var wire 64 I srai_rslt [63:0] $end
$var wire 64 J sra_rslt [63:0] $end
$var wire 32 K sltu_rslt [31:0] $end
$var wire 32 L sltiu_rslt [31:0] $end
$var wire 64 M sext_src1 [63:0] $end
$var wire 5 N rs2 [4:0] $end
$var wire 5 O rs1 [4:0] $end
$var wire 32 P result [31:0] $end
$var wire 1 Q reg_wr_en $end
$var wire 32 R reg_wr_data [31:0] $end
$var wire 5 S rd [4:0] $end
$var wire 1 T opcode_valid $end
$var wire 5 U opcode0 [4:0] $end
$var wire 7 V opcode [6:0] $end
$var wire 32 W next_pc [31:0] $end
$var wire 32 X jalr_tgt_pc [31:0] $end
$var wire 1 Y is_xori $end
$var wire 1 Z is_xor $end
$var wire 1 [ is_sub $end
$var wire 1 \ is_store $end
$var wire 1 ] is_srli $end
$var wire 1 ^ is_srl $end
$var wire 1 _ is_srai $end
$var wire 1 ` is_sra $end
$var wire 1 a is_sltu $end
$var wire 1 b is_sltiu $end
$var wire 1 c is_slti $end
$var wire 1 d is_slt $end
$var wire 1 e is_slli $end
$var wire 1 f is_sll $end
$var wire 1 g is_ori $end
$var wire 1 h is_or $end
$var wire 1 i is_lui $end
$var wire 1 j is_load $end
$var wire 1 k is_jalr $end
$var wire 1 l is_jal $end
$var wire 1 m is_j_instr $end
$var wire 1 n is_bne $end
$var wire 1 o is_bltu $end
$var wire 1 p is_blt $end
$var wire 1 q is_bgeu $end
$var wire 1 r is_bge $end
$var wire 1 s is_beq $end
$var wire 1 t is_b_instr $end
$var wire 1 u is_auipc $end
$var wire 1 v is_andi $end
$var wire 1 w is_and $end
$var wire 1 x is_addi $end
$var wire 1 y is_add $end
$var wire 1 z inst_wren $end
$var wire 32 { inst_out [31:0] $end
$var wire 8 | inso_addr [7:0] $end
$var wire 1 " ins_memfull $end
$var wire 32 } imm [31:0] $end
$var wire 7 ~ funct7 [6:0] $end
$var wire 3 !" funct3 [2:0] $end
$var wire 10 "" dec_bits0 [9:0] $end
$var wire 11 #" dec_bits [10:0] $end
$var wire 8 $" dato_addr [7:0] $end
$var wire 8 %" dati_addr [7:0] $end
$var wire 1 &" data_wren $end
$var wire 1 '" data_rden $end
$var wire 32 (" data_out [31:0] $end
$var wire 1 $ data_memfull $end
$var wire 32 )" data_in [31:0] $end
$var wire 32 *" br_tgt_pc [31:0] $end
$var reg 1 +" clock_hf $end
$var reg 1 ," clock_pc $end
$var reg 32 -" pc [31:0] $end
$scope module dat_mem0 $end
$var wire 8 ." addr_in [7:0] $end
$var wire 8 /" addr_out [7:0] $end
$var wire 1 +" clock $end
$var wire 32 0" data_in [31:0] $end
$var wire 1 '" data_rden $end
$var wire 1 &" data_wren $end
$var wire 1 + reset_n $end
$var wire 1 $ sram_full $end
$var reg 32 1" data_out [31:0] $end
$var integer 32 2" i [31:0] $end
$upscope $end
$scope module ins_mem0 $end
$var wire 8 3" addr_in [7:0] $end
$var wire 8 4" addr_out [7:0] $end
$var wire 1 ( clock $end
$var wire 32 5" data_in [31:0] $end
$var wire 1 < data_rden $end
$var wire 1 z data_wren $end
$var wire 1 + reset_n $end
$var wire 1 " sram_full $end
$var reg 32 6" data_out [31:0] $end
$var integer 32 7" i [31:0] $end
$upscope $end
$scope module reg_mem0 $end
$var wire 1 8" RAM_full $end
$var wire 5 9" addr_in1rd [4:0] $end
$var wire 5 :" addr_in1wr [4:0] $end
$var wire 5 ;" addr_in2rd [4:0] $end
$var wire 5 <" addr_in2wr [4:0] $end
$var wire 1 +" clock $end
$var wire 32 =" data_in1 [31:0] $end
$var wire 32 >" data_in2 [31:0] $end
$var wire 1 D data_rden1 $end
$var wire 1 E data_rden2 $end
$var wire 1 Q data_wren1 $end
$var wire 1 ?" data_wren2 $end
$var wire 1 + reset_n $end
$var reg 32 @" data_out1 [31:0] $end
$var reg 32 A" data_out2 [31:0] $end
$var integer 32 B" i [31:0] $end
$upscope $end
$upscope $end
$scope module instrs $end
$var wire 8 C" address [7:0] $end
$var wire 32 D" instruction [31:0] $end
$upscope $end
$upscope $end
$enddefinitions $end
#0
$dumpvars
bx D"
bx C"
b100000 B"
b0 A"
b0 @"
0?"
b0 >"
b0 ="
b0 <"
b0 ;"
b0 :"
b0 9"
08"
b100000000 7"
b0 6"
b0 5"
b0 4"
b0 3"
b100000000 2"
b0 1"
b0 0"
b0 /"
b0 ."
b0 -"
0,"
0+"
b0 *"
b0 )"
b0 ("
0'"
0&"
b0 %"
b0 $"
b0 #"
b0 ""
b0 !"
b0 ~
b0 }
b0 |
b0 {
0z
0y
0x
0w
0v
0u
0t
0s
0r
0q
0p
0o
0n
0m
0l
0k
0j
0i
0h
0g
0f
0e
0d
0c
0b
0a
0`
0_
0^
0]
0\
0[
0Z
0Y
b0 X
b0 W
b0 V
b0 U
0T
b0 S
b0 R
0Q
b0 P
b0 O
b0 N
b0 M
b0 L
b0 K
b0 J
b0 I
b0 H
b0 G
0F
0E
1D
1C
b0 B
0A
0@
0?
1>
b0 =
1<
b0 ;
b0 :
19
08
17
b0 6
b0 5
b0 4
b0 3
b0 2
b0 1
bx 0
0/
0.
0-
0,
0+
b0 *
b0 )
0(
bx '
b0 &
b0 %
0$
b0 #
0"
bx !
$end
#10000
b100000000 7"
1(
#20000
0(
1+
#30000
1(
#40000
0(
1z
b0 0
1/
#50000
1(
#60000
0(
b1010100000000000010010011 !
b1010100000000000010010011 D"
b0 '
b0 C"
#70000
1(
#80000
0(
b1 0
b1010100000000000010010011 ;
b1010100000000000010010011 5"
b1010100000000000010010011 *
b1010100000000000010010011 5
#90000
1(
#100000
0(
b11100000000000100010011 !
b11100000000000100010011 D"
b1 '
b1 C"
b100 :
b100 3"
b100 &
b100 3
#110000
b10101 %"
b10101 ."
b10101 $"
b10101 /"
b10101 R
b10101 ="
b10101 P
1Q
b1 L
b10101 *"
b10101 X
b10101 }
b10011 #"
1x
b10011 ""
b10011 V
b100 U
1T
b10101 N
b10101 ;"
b1 S
b1 :"
b1010100000000000010010011 =
b1010100000000000010010011 {
b1010100000000000010010011 6"
1(
#120000
0(
b10 0
b11100000000000100010011 ;
b11100000000000100010011 5"
b11100000000000100010011 *
b11100000000000100010011 5
#130000
1(
#140000
0(
b11111111110000000000000110010011 !
b11111111110000000000000110010011 D"
b10 '
b10 C"
b1000 :
b1000 3"
b1000 &
b1000 3
#150000
1(
#160000
0(
b11 0
b11111111110000000000000110010011 ;
b11111111110000000000000110010011 5"
b11111111110000000000000110010011 *
b11111111110000000000000110010011 5
#170000
1(
#180000
0(
b101110000001111001010010011 !
b101110000001111001010010011 D"
b11 '
b11 C"
b1100 :
b1100 3"
b1100 &
b1100 3
#190000
1(
#200000
0(
b100 0
b101110000001111001010010011 ;
b101110000001111001010010011 5"
b101110000001111001010010011 *
b101110000001111001010010011 5
#210000
1(
#220000
0(
b1010100101100001010010011 !
b1010100101100001010010011 D"
b100 '
b100 C"
b10000 :
b10000 3"
b10000 &
b10000 3
#230000
1(
#240000
0(
b101 0
b1010100101100001010010011 ;
b1010100101100001010010011 5"
b1010100101100001010010011 *
b1010100101100001010010011 5
#250000
1(
#260000
0(
b101110000001110001100010011 !
b101110000001110001100010011 D"
b101 '
b101 C"
b10100 :
b10100 3"
b10100 &
b10100 3
#270000
1(
#280000
0(
b110 0
b101110000001110001100010011 ;
b101110000001110001100010011 5"
b101110000001110001100010011 *
b101110000001110001100010011 5
#290000
1(
#300000
0(
b101110000110100001100010011 !
b101110000110100001100010011 D"
b110 '
b110 C"
b11000 :
b11000 3"
b11000 &
b11000 3
#310000
1(
#320000
0(
b111 0
b101110000110100001100010011 ;
b101110000110100001100010011 5"
b101110000110100001100010011 *
b101110000110100001100010011 5
#330000
1(
#340000
0(
b11100001000001110010011 !
b11100001000001110010011 D"
b111 '
b111 C"
b11100 :
b11100 3"
b11100 &
b11100 3
#350000
1(
#360000
0(
b1000 0
b11100001000001110010011 ;
b11100001000001110010011 5"
b11100001000001110010011 *
b11100001000001110010011 5
#370000
1(
#380000
0(
b1110100111100001110010011 !
b1110100111100001110010011 D"
b1000 '
b1000 C"
b100000 :
b100000 3"
b100000 &
b100000 3
#390000
1(
#400000
0(
b1001 0
b1110100111100001110010011 ;
b1110100111100001110010011 5"
b1110100111100001110010011 *
b1110100111100001110010011 5
#410000
1(
#420000
0(
b11000001001010000010011 !
b11000001001010000010011 D"
b1001 '
b1001 C"
b100100 :
b100100 3"
b100100 &
b100100 3
#430000
1(
#440000
0(
b1010 0
b11000001001010000010011 ;
b11000001001010000010011 5"
b11000001001010000010011 *
b11000001001010000010011 5
#450000
1(
#460000
0(
b1010100000101000100010000010011 !
b1010100000101000100010000010011 D"
b1010 '
b1010 C"
b101000 :
b101000 3"
b101000 &
b101000 3
#470000
1(
#480000
0(
b1011 0
b1010100000101000100010000010011 ;
b1010100000101000100010000010011 5"
b1010100000101000100010000010011 *
b1010100000101000100010000010011 5
#490000
1(
#500000
0(
b1000001101010010010011 !
b1000001101010010010011 D"
b1011 '
b1011 C"
b101100 :
b101100 3"
b101100 &
b101100 3
#510000
1(
#520000
0(
b1100 0
b1000001101010010010011 ;
b1000001101010010010011 5"
b1000001101010010010011 *
b1000001101010010010011 5
#530000
1(
#540000
0(
b10001001100010010010011 !
b10001001100010010010011 D"
b1100 '
b1100 C"
b110000 :
b110000 3"
b110000 &
b110000 3
#550000
1(
#560000
0(
b1101 0
b10001001100010010010011 ;
b10001001100010010010011 5"
b10001001100010010010011 *
b10001001100010010010011 5
#570000
1(
#580000
0(
b1000001111010100110011 !
b1000001111010100110011 D"
b1101 '
b1101 C"
b110100 :
b110100 3"
b110100 &
b110100 3
#590000
1(
#600000
0(
b1110 0
b1000001111010100110011 ;
b1000001111010100110011 5"
b1000001111010100110011 *
b1000001111010100110011 5
#610000
1(
#620000
0(
b10001010100010100010011 !
b10001010100010100010011 D"
b1110 '
b1110 C"
b111000 :
b111000 3"
b111000 &
b111000 3
#630000
1(
#640000
0(
b1111 0
b10001010100010100010011 ;
b10001010100010100010011 5"
b10001010100010100010011 *
b10001010100010100010011 5
#650000
1(
#660000
0(
b1000001110010110110011 !
b1000001110010110110011 D"
b1111 '
b1111 C"
b111100 :
b111100 3"
b111100 &
b111100 3
#670000
1(
#680000
0(
b10000 0
b1000001110010110110011 ;
b1000001110010110110011 5"
b1000001110010110110011 *
b1000001110010110110011 5
#690000
1(
#700000
0(
b1011001011100010110010011 !
b1011001011100010110010011 D"
b10000 '
b10000 C"
b1000000 :
b1000000 3"
b1000000 &
b1000000 3
#710000
1(
#720000
0(
b10001 0
b1011001011100010110010011 ;
b1011001011100010110010011 5"
b1011001011100010110010011 *
b1011001011100010110010011 5
#730000
1(
#740000
0(
b1000001100011000110011 !
b1000001100011000110011 D"
b10001 '
b10001 C"
b1000100 :
b1000100 3"
b1000100 &
b1000100 3
#750000
1(
#760000
0(
b10010 0
b1000001100011000110011 ;
b1000001100011000110011 5"
b1000001100011000110011 *
b1000001100011000110011 5
#770000
1(
#780000
0(
b1001101100100011000010011 !
b1001101100100011000010011 D"
b10010 '
b10010 C"
b1001000 :
b1001000 3"
b1001000 &
b1001000 3
#790000
1(
#800000
0(
b10011 0
b1001101100100011000010011 ;
b1001101100100011000010011 5"
b1001101100100011000010011 *
b1001101100100011000010011 5
#810000
1(
#820000
0(
b1000001000011010110011 !
b1000001000011010110011 D"
b10011 '
b10011 C"
b1001100 :
b1001100 3"
b1001100 &
b1001100 3
#830000
1(
#840000
0(
b10100 0
b1000001000011010110011 ;
b1000001000011010110011 5"
b1000001000011010110011 *
b1000001000011010110011 5
#850000
1(
#860000
0(
b1110101101100011010010011 !
b1110101101100011010010011 D"
b10100 '
b10100 C"
b1010000 :
b1010000 3"
b1010000 &
b1010000 3
#870000
1(
#880000
0(
b10101 0
b1110101101100011010010011 ;
b1110101101100011010010011 5"
b1110101101100011010010011 *
b1110101101100011010010011 5
#890000
1(
#900000
0(
b1000000001000001000011100110011 !
b1000000001000001000011100110011 D"
b10101 '
b10101 C"
b1010100 :
b1010100 3"
b1010100 &
b1010100 3
#910000
1(
#920000
0(
b10110 0
b1000000001000001000011100110011 ;
b1000000001000001000011100110011 5"
b1000000001000001000011100110011 *
b1000000001000001000011100110011 5
#930000
1(
#940000
0(
b111101110100011100010011 !
b111101110100011100010011 D"
b10110 '
b10110 C"
b1011000 :
b1011000 3"
b1011000 &
b1011000 3
#950000
1(
#960000
0(
b10111 0
b111101110100011100010011 ;
b111101110100011100010011 5"
b111101110100011100010011 *
b111101110100011100010011 5
#970000
1(
#980000
0(
b1000010001011110110011 !
b1000010001011110110011 D"
b10111 '
b10111 C"
b1011100 :
b1011100 3"
b1011100 &
b1011100 3
#990000
1(
#1000000
0(
b11000 0
b1000010001011110110011 ;
b1000010001011110110011 5"
b1000010001011110110011 *
b1000010001011110110011 5
#1010000
1(
#1020000
0(
b111000000101111100011110010011 !
b111000000101111100011110010011 D"
b11000 '
b11000 C"
b1100000 :
b1100000 3"
b1100000 &
b1100000 3
#1030000
1(
#1040000
0(
b11001 0
b111000000101111100011110010011 ;
b111000000101111100011110010011 5"
b111000000101111100011110010011 *
b111000000101111100011110010011 5
#1050000
1(
#1060000
0(
b1000001101100000110011 !
b1000001101100000110011 D"
b11001 '
b11001 C"
b1100100 :
b1100100 3"
b1100100 &
b1100100 3
#1070000
1(
#1080000
0(
b11010 0
b1000001101100000110011 ;
b1000001101100000110011 5"
b1000001101100000110011 *
b1000001101100000110011 5
#1090000
1(
#1100000
0(
b110000100100000010011 !
b110000100100000010011 D"
b11010 '
b11010 C"
b1101000 :
b1101000 3"
b1101000 &
b1101000 3
#1110000
1(
#1120000
0(
b11011 0
b110000100100000010011 ;
b110000100100000010011 5"
b110000100100000010011 *
b110000100100000010011 5
#1130000
1(
#1140000
0(
b100010011100010110011 !
b100010011100010110011 D"
b11011 '
b11011 C"
b1101100 :
b1101100 3"
b1101100 &
b1101100 3
#1150000
1(
#1160000
0(
b11100 0
b100010011100010110011 ;
b100010011100010110011 5"
b100010011100010110011 *
b100010011100010110011 5
#1170000
1(
#1180000
0(
b10001100100010010011 !
b10001100100010010011 D"
b11100 '
b11100 C"
b1110000 :
b1110000 3"
b1110000 &
b1110000 3
#1190000
1(
#1200000
0(
b11101 0
b10001100100010010011 ;
b10001100100010010011 5"
b10001100100010010011 *
b10001100100010010011 5
#1210000
1(
#1220000
0(
b1010100010011100100010011 !
b1010100010011100100010011 D"
b11101 '
b11101 C"
b1110100 :
b1110100 3"
b1110100 &
b1110100 3
#1230000
1(
#1240000
0(
b11110 0
b1010100010011100100010011 ;
b1010100010011100100010011 5"
b1010100010011100100010011 *
b1010100010011100100010011 5
#1250000
1(
#1260000
0(
b10010100100100010011 !
b10010100100100010011 D"
b11110 '
b11110 C"
b1111000 :
b1111000 3"
b1111000 &
b1111000 3
#1270000
1(
#1280000
0(
b11111 0
b10010100100100010011 ;
b10010100100100010011 5"
b10010100100100010011 *
b10010100100100010011 5
#1290000
1(
#1300000
0(
b100110110111 !
b100110110111 D"
b11111 '
b11111 C"
b1111100 :
b1111100 3"
b1111100 &
b1111100 3
#1310000
1(
#1320000
0(
b100000 0
b100110110111 ;
b100110110111 5"
b100110110111 *
b100110110111 5
#1330000
1(
#1340000
0(
b110011100100110010011 !
b110011100100110010011 D"
b100000 '
b100000 C"
b10000000 :
b10000000 3"
b10000000 &
b10000000 3
#1350000
1(
#1360000
0(
b100001 0
b110011100100110010011 ;
b110011100100110010011 5"
b110011100100110010011 *
b110011100100110010011 5
#1370000
1(
#1380000
0(
b1000000000100011101101000010011 !
b1000000000100011101101000010011 D"
b100001 '
b100001 C"
b10000100 :
b10000100 3"
b10000100 &
b10000100 3
#1390000
1(
#1400000
0(
b100010 0
b1000000000100011101101000010011 ;
b1000000000100011101101000010011 5"
b1000000000100011101101000010011 *
b1000000000100011101101000010011 5
#1410000
1(
#1420000
0(
b11111111111110100100101000010011 !
b11111111111110100100101000010011 D"
b100010 '
b100010 C"
b10001000 :
b10001000 3"
b10001000 &
b10001000 3
#1430000
1(
#1440000
0(
b100011 0
b11111111111110100100101000010011 ;
b11111111111110100100101000010011 5"
b11111111111110100100101000010011 *
b11111111111110100100101000010011 5
#1450000
1(
#1460000
0(
b100011010101010110011 !
b100011010101010110011 D"
b100011 '
b100011 C"
b10001100 :
b10001100 3"
b10001100 &
b10001100 3
#1470000
1(
#1480000
0(
b100100 0
b100011010101010110011 ;
b100011010101010110011 5"
b100011010101010110011 *
b100011010101010110011 5
#1490000
1(
#1500000
0(
b10101100101010010011 !
b10101100101010010011 D"
b100100 '
b100100 C"
b10010000 :
b10010000 3"
b10010000 &
b10010000 3
#1510000
1(
#1520000
0(
b100101 0
b10101100101010010011 ;
b10101100101010010011 5"
b10101100101010010011 *
b10101100101010010011 5
#1530000
1(
#1540000
0(
b100011010101100010011 !
b100011010101100010011 D"
b100101 '
b100101 C"
b10010100 :
b10010100 3"
b10010100 &
b10010100 3
#1550000
1(
#1560000
0(
b100110 0
b100011010101100010011 ;
b100011010101100010011 5"
b100011010101100010011 *
b100011010101100010011 5
#1570000
1(
#1580000
0(
b10110100101100010011 !
b10110100101100010011 D"
b100110 '
b100110 C"
b10011000 :
b10011000 3"
b10011000 &
b10011000 3
#1590000
1(
#1600000
0(
b100111 0
b10110100101100010011 ;
b10110100101100010011 5"
b10110100101100010011 *
b10110100101100010011 5
#1610000
1(
#1620000
0(
b1000000001000001101101110110011 !
b1000000001000001101101110110011 D"
b100111 '
b100111 C"
b10011100 :
b10011100 3"
b10011100 &
b10011100 3
#1630000
1(
#1640000
0(
b101000 0
b1000000001000001101101110110011 ;
b1000000001000001101101110110011 5"
b1000000001000001101101110110011 *
b1000000001000001101101110110011 5
#1650000
1(
#1660000
0(
b110111100101110010011 !
b110111100101110010011 D"
b101000 '
b101000 C"
b10100000 :
b10100000 3"
b10100000 &
b10100000 3
#1670000
1(
#1680000
0(
b101001 0
b110111100101110010011 ;
b110111100101110010011 5"
b110111100101110010011 *
b110111100101110010011 5
#1690000
1(
#1700000
0(
b100001000010111 !
b100001000010111 D"
b101001 '
b101001 C"
b10100100 :
b10100100 3"
b10100100 &
b10100100 3
#1710000
1(
#1720000
0(
b101010 0
b100001000010111 ;
b100001000010111 5"
b100001000010111 *
b100001000010111 5
#1730000
1(
#1740000
0(
b11100100101110000010011 !
b11100100101110000010011 D"
b101010 '
b101010 C"
b10101000 :
b10101000 3"
b10101000 &
b10101000 3
#1750000
1(
#1760000
0(
b101011 0
b11100100101110000010011 ;
b11100100101110000010011 5"
b11100100101110000010011 *
b11100100101110000010011 5
#1770000
1(
#1780000
0(
b1000000011000100110000010011 !
b1000000011000100110000010011 D"
b101011 '
b101011 C"
b10101100 :
b10101100 3"
b10101100 &
b10101100 3
#1790000
1(
#1800000
0(
b101100 0
b1000000011000100110000010011 ;
b1000000011000100110000010011 5"
b1000000011000100110000010011 *
b1000000011000100110000010011 5
#1810000
1(
#1820000
0(
b10000000000110011101111 !
b10000000000110011101111 D"
b101100 '
b101100 C"
b10110000 :
b10110000 3"
b10110000 &
b10110000 3
#1830000
1(
#1840000
0(
b101101 0
b10000000000110011101111 ;
b10000000000110011101111 5"
b10000000000110011101111 *
b10000000000110011101111 5
#1850000
1(
#1860000
0(
b1000010111 !
b1000010111 D"
b101101 '
b101101 C"
b10110100 :
b10110100 3"
b10110100 &
b10110100 3
#1870000
1(
#1880000
0(
b101110 0
b1000010111 ;
b1000010111 5"
b1000010111 *
b1000010111 5
#1890000
1(
#1900000
0(
b10011001100110010110011 !
b10011001100110010110011 D"
b101110 '
b101110 C"
b10111000 :
b10111000 3"
b10111000 &
b10111000 3
#1910000
1(
#1920000
0(
b101111 0
b10011001100110010110011 ;
b10011001100110010110011 5"
b10011001100110010110011 *
b10011001100110010110011 5
#1930000
1(
#1940000
0(
b111001100110010010011 !
b111001100110010010011 D"
b101111 '
b101111 C"
b10111100 :
b10111100 3"
b10111100 &
b10111100 3
#1950000
1(
#1960000
0(
b110000 0
b111001100110010010011 ;
b111001100110010010011 5"
b111001100110010010011 *
b111001100110010010011 5
#1970000
1(
#1980000
0(
b1000000100000110101100111 !
b1000000100000110101100111 D"
b110000 '
b110000 C"
b11000000 :
b11000000 3"
b11000000 &
b11000000 3
#1990000
1(
#2000000
0(
b110001 0
b1000000100000110101100111 ;
b1000000100000110101100111 5"
b1000000100000110101100111 *
b1000000100000110101100111 5
#2010000
1(
#2020000
0(
b1000000010011010000110100110011 !
b1000000010011010000110100110011 D"
b110001 '
b110001 C"
b11000100 :
b11000100 3"
b11000100 &
b11000100 3
#2030000
1(
#2040000
0(
b110010 0
b1000000010011010000110100110011 ;
b1000000010011010000110100110011 5"
b1000000010011010000110100110011 *
b1000000010011010000110100110011 5
#2050000
1(
#2060000
0(
b11111111000111010000110100010011 !
b11111111000111010000110100010011 D"
b110010 '
b110010 C"
b11001000 :
b11001000 3"
b11001000 &
b11001000 3
#2070000
1(
#2080000
0(
b110011 0
b11111111000111010000110100010011 ;
b11111111000111010000110100010011 5"
b11111111000111010000110100010011 *
b11111111000111010000110100010011 5
#2090000
1(
#2100000
0(
b100010010000010100011 !
b100010010000010100011 D"
b110011 '
b110011 C"
b11001100 :
b11001100 3"
b11001100 &
b11001100 3
#2110000
1(
#2120000
0(
b110100 0
b100010010000010100011 ;
b100010010000010100011 5"
b100010010000010100011 *
b100010010000010100011 5
#2130000
1(
#2140000
0(
b100010010110110000011 !
b100010010110110000011 D"
b110100 '
b110100 C"
b11010000 :
b11010000 3"
b11010000 &
b11010000 3
#2150000
1(
#2160000
0(
b110101 0
b100010010110110000011 ;
b100010010110110000011 5"
b100010010110110000011 *
b100010010110110000011 5
#2170000
1(
#2180000
0(
b1010011011100110110010011 !
b1010011011100110110010011 D"
b110101 '
b110101 C"
b11010100 :
b11010100 3"
b11010100 &
b11010100 3
#2190000
1(
#2200000
0(
b110110 0
b1010011011100110110010011 ;
b1010011011100110110010011 5"
b1010011011100110110010011 *
b1010011011100110110010011 5
#2210000
1(
#2220000
0(
b100000000111000010011 !
b100000000111000010011 D"
b110110 '
b110110 C"
b11011000 :
b11011000 3"
b11011000 &
b11011000 3
#2230000
1(
#2240000
0(
b110111 0
b100000000111000010011 ;
b100000000111000010011 5"
b100000000111000010011 *
b100000000111000010011 5
#2250000
1(
#2260000
0(
b100000000111010010011 !
b100000000111010010011 D"
b110111 '
b110111 C"
b11011100 :
b11011100 3"
b11011100 &
b11011100 3
#2270000
1(
#2280000
0(
b111000 0
b100000000111010010011 ;
b100000000111010010011 5"
b100000000111010010011 *
b100000000111010010011 5
#2290000
1(
#2300000
0(
b100000000111100010011 !
b100000000111100010011 D"
b111000 '
b111000 C"
b11100000 :
b11100000 3"
b11100000 &
b11100000 3
#2310000
1(
#2320000
0(
b111001 0
b100000000111100010011 ;
b100000000111100010011 5"
b100000000111100010011 *
b100000000111100010011 5
#2330000
1(
#2340000
0(
b1101111 !
b1101111 D"
b111001 '
b111001 C"
b11100100 :
b11100100 3"
b11100100 &
b11100100 3
#2350000
1(
#2360000
0(
b111010 0
b1101111 ;
b1101111 5"
b1101111 *
b1101111 5
#2370000
1(
#2380000
0(
0z
0/
#2390000
1(
#2400000
0(
#2410000
1(
#2420000
b100 |
b100 4"
b11001 *"
b100 -"
0,"
1+"
0(
b1000 W
1-
#2430000
b111 %"
b111 ."
b111 $"
b111 /"
b111 R
b111 ="
b111 P
b1011 *"
b111 X
b111 }
b111 N
b111 ;"
b10 S
b10 :"
b11100000000000100010011 =
b11100000000000100010011 {
b11100000000000100010011 6"
0+"
1(
#2440000
0(
#2450000
b1100 W
b1000 |
b1000 4"
b1111 *"
b1000 -"
1,"
1+"
1(
#2460000
0(
#2470000
b11111100 %"
b11111100 ."
b11111100 $"
b11111100 /"
b11111111111111111111111111111100 R
b11111111111111111111111111111100 ="
b11111111111111111111111111111100 P
b100 *"
b11111111111111111111111111111100 X
b11111111111111111111111111111100 }
b11100 N
b11100 ;"
b11 S
b11 :"
b1111111 ~
b10000010011 #"
b11111111110000000000000110010011 =
b11111111110000000000000110010011 {
b11111111110000000000000110010011 6"
0+"
1(
#2480000
0(
#2490000
0,"
1+"
1(
#2500000
0(
#2510000
0+"
1(
#2520000
0(
#2530000
b10000 W
b1100 |
b1100 4"
b1000 *"
b1100 -"
1,"
1+"
1(
#2540000
0(
#2550000
b0 %"
b0 ."
b0 $"
b0 /"
b0 R
b0 ="
b0 P
b1101000 *"
b1011100 X
b1011100 }
0x
1v
b1110010011 ""
b111 !"
b1 O
b1 9"
b101 S
b101 :"
b10 ~
b1110010011 #"
b101110000001111001010010011 =
b101110000001111001010010011 {
b101110000001111001010010011 6"
0+"
1(
#2560000
0(
#2570000
b10100 %"
b10100 ."
b10100 $"
b10100 /"
b10100 R
b10100 ="
b10100 P
b1110001 X
b10101 J
b10101 M
b10101 H
b10101 @"
0,"
1+"
1(
#2580000
0(
#2590000
0+"
1(
#2600000
0(
#2610000
b10100 W
b10000 |
b10000 4"
b1101100 *"
b10000 -"
1,"
1+"
1(
#2620000
0(
#2630000
b0 %"
b0 ."
b0 $"
b0 /"
b0 R
b0 ="
b0 P
b0 L
b100101 *"
b101010 X
b10101 }
b1000010011 #"
1Y
0v
b1000010011 ""
b100 !"
b101 O
b101 9"
b10101 N
b10101 ;"
b0 ~
b1010100101100001010010011 =
b1010100101100001010010011 {
b1010100101100001010010011 6"
0+"
1(
#2640000
0(
#2650000
b1 %"
b1 ."
b1 $"
b1 /"
b1 R
b1 ="
b1 P
b101001 X
b10100 J
b10100 M
b1 L
b10100 H
b10100 @"
0,"
1+"
1(
#2660000
0(
#2670000
0+"
1(
#2680000
0(
#2690000
b11000 W
b10100 |
b10100 4"
b101001 *"
b10100 -"
b10101 %"
b10101 ."
b10101 $"
b10101 /"
b10101 R
b10101 ="
b10101 P
b10101 X
b0 J
b0 M
b0 H
b0 @"
1,"
1+"
1(
#2700000
0(
#2710000
b1011100 %"
b1011100 ."
b1011100 $"
b1011100 /"
b1011100 R
b1011100 ="
b1011100 P
b1110000 *"
b1011100 X
b1011100 }
b1100010011 #"
0Y
1g
b1100010011 ""
b110 !"
b1 O
b1 9"
b11100 N
b11100 ;"
b110 S
b110 :"
b10 ~
b101110000001110001100010011 =
b101110000001110001100010011 {
b101110000001110001100010011 6"
0+"
1(
#2720000
0(
#2730000
b1011101 %"
b1011101 ."
b1011101 $"
b1011101 /"
b1011101 R
b1011101 ="
b1011101 P
b1110001 X
b10101 J
b10101 M
b10101 H
b10101 @"
0,"
1+"
1(
#2740000
0(
#2750000
0+"
1(
#2760000
0(
#2770000
b11100 W
b11000 |
b11000 4"
b1110100 *"
b11000 -"
1,"
1+"
1(
#2780000
0(
#2790000
b1001001 %"
b1001001 ."
b1001001 $"
b1001001 /"
b1001001 R
b1001001 ="
b1001001 P
b1000010011 #"
1Y
0g
b1000010011 ""
b100 !"
b110 O
b110 9"
b101110000110100001100010011 =
b101110000110100001100010011 {
b101110000110100001100010011 6"
0+"
1(
#2800000
0(
#2810000
b1 %"
b1 ."
b1 $"
b1 /"
b1 R
b1 ="
b1 P
b10111001 X
b1011101 J
b1011101 M
b0 L
b1011101 H
b1011101 @"
0,"
1+"
1(
#2820000
0(
#2830000
0+"
1(
#2840000
0(
#2850000
b100000 W
b11100 |
b11100 4"
b1111000 *"
b11100 -"
b10101 %"
b10101 ."
b10101 $"
b10101 /"
b10101 R
b10101 ="
b10101 P
b10100101 X
b1001001 J
b1001001 M
b1 L
b1001001 H
b1001001 @"
1,"
1+"
1(
#2860000
0(
