SRAM/SRAM_tb.vcd
$date
	Tue Dec 20 19:51:51 2022
$end
$version
	Icarus Verilog
$end
$timescale
	1ps
$end
$scope module SRAM_tb $end
$var wire 1 ! sram_full $end
$var wire 16 " data_out [15:0] $end
$var reg 5 # addr_in [4:0] $end
$var reg 5 $ addr_out [4:0] $end
$var reg 1 % clock $end
$var reg 16 & data_in [15:0] $end
$var reg 1 ' data_rden $end
$var reg 1 ( data_wren $end
$var reg 1 ) reset_n $end
$scope module SRAM $end
$var wire 5 * addr_in [4:0] $end
$var wire 5 + addr_out [4:0] $end
$var wire 1 % clock $end
$var wire 16 , data_in [15:0] $end
$var wire 1 ' data_rden $end
$var wire 1 ( data_wren $end
$var wire 1 ) reset_n $end
$var wire 1 ! sram_full $end
$var reg 16 - data_out [15:0] $end
$var integer 32 . i [31:0] $end
$var integer 32 / idx [31:0] $end
$upscope $end
$upscope $end
$enddefinitions $end
#0
$dumpvars
bx /
b100000 .
b0 -
b0 ,
bx +
b0 *
0)
0(
0'
b0 &
0%
bx $
b0 #
b0 "
0!
$end
#10000
b100000 .
1%
#20000
0%
#30000
b100000 .
1%
#40000
0%
#50000
b100000 .
1%
#60000
0%
#70000
b100000 .
1%
#80000
0%
#90000
b100000 .
1%
#100000
0%
#110000
b100000 .
1%
#120000
0%
#130000
b100000 .
1%
#140000
0%
#150000
b100000 .
1%
#160000
0%
#170000
b100000 .
1%
#180000
0%
#190000
b100000 .
1%
#200000
0%
#210000
b100000 .
1%
#220000
0%
#230000
b100000 .
1%
#240000
0%
#250000
b100000 .
1%
#260000
0%
#270000
b100000 .
1%
#280000
0%
#290000
b100000 .
1%
#300000
0%
#310000
b100000 .
1%
#320000
0%
#330000
b100000 .
1%
#340000
0%
#350000
b100000 .
1%
#360000
0%
#370000
b100000 .
1%
#380000
0%
#390000
b100000 .
1%
#400000
0%
#410000
b100000 .
1%
#420000
0%
#430000
b100000 .
1%
#440000
0%
#450000
b100000 .
1%
#460000
0%
#470000
b100000 .
1%
#480000
0%
#490000
b100000 .
1%
#500000
0%
#510000
b100000 .
1%
#520000
0%
#530000
b100000 .
1%
#540000
0%
#550000
b100000 .
1%
#560000
0%
#570000
b100000 .
1%
#580000
0%
#590000
b100000 .
1%
#600000
0%
#610000
b100000 .
1%
#620000
0%
#630000
b100000 .
1%
#640000
0%
#650000
b100000 .
1%
#660000
0%
#670000
b100000 .
1%
#680000
0%
#690000
b100000 .
1%
#700000
0%
#710000
b100000 .
1%
#720000
0%
#730000
b100000 .
1%
#740000
0%
#750000
b100000 .
1%
#760000
0%
#770000
b100000 .
1%
#780000
0%
#790000
b100000 .
1%
#800000
0%
#810000
b100000 .
1%
#820000
0%
#830000
b100000 .
1%
#840000
0%
#850000
b100000 .
1%
#860000
0%
#870000
b100000 .
1%
#880000
0%
#890000
b100000 .
1%
#900000
0%
#910000
b100000 .
1%
#920000
0%
#930000
b100000 .
1%
#940000
0%
#950000
b100000 .
1%
#960000
0%
#970000
b100000 .
1%
#980000
0%
#990000
b100000 .
1%
#1000000
0%
1)
#1010000
1%
#1020000
0%
#1030000
1%
#1040000
0%
#1050000
1%
#1060000
0%
#1070000
1%
#1080000
0%
#1090000
1%
#1100000
0%
b100000 &
b100000 ,
#1110000
1%
#1120000
0%
#1130000
1%
#1140000
0%
1(
#1150000
1%
#1160000
0%
0(
#1170000
1%
#1180000
0%
b0 $
b0 +
#1190000
1%
#1200000
0%
1'
#1210000
b100000 "
b100000 -
1%
#1220000
0%
0'
#1230000
1%
#1240000
0%
#1250000
1%
#1260000
0%
#1270000
1%
#1280000
0%
#1290000
1%
#1300000
0%
#1310000
1%
#1320000
0%
b1100100 &
b1100100 ,
#1330000
1%
#1340000
0%
b11110 #
b11110 *
#1350000
1%
#1360000
0%
1(
#1370000
1%
#1380000
0%
0(
#1390000
1%
#1400000
0%
#1410000
1%
#1420000
0%
#1430000
1%
#1440000
0%
#1450000
1%
#1460000
0%
#1470000
1%
#1480000
0%
b11001000 &
b11001000 ,
#1490000
1%
#1500000
0%
1!
b11111 #
b11111 *
b100000 /
#1510000
1%
#1520000
0%
1(
#1530000
1%
#1540000
0%
0(
#1550000
1%
#1560000
0%
b11110 $
b11110 +
#1570000
1%
#1580000
0%
1'
#1590000
b1100100 "
b1100100 -
1%
#1600000
0%
b11111 $
b11111 +
#1610000
b11001000 "
b11001000 -
1%
#1620000
0%
0'
