RAM_2R2W/RAM_2R2W_tb.vcd
$date
	Wed Dec 14 23:50:06 2022
$end
$version
	Icarus Verilog
$end
$timescale
	1ps
$end
$scope module RAM_2R2W_tb $end
$var wire 16 ! data_out2 [15:0] $end
$var wire 16 " data_out1 [15:0] $end
$var wire 1 # RAM_full $end
$var reg 5 $ addr_in1 [4:0] $end
$var reg 5 % addr_in2 [4:0] $end
$var reg 1 & clock $end
$var reg 16 ' data_in1 [15:0] $end
$var reg 16 ( data_in2 [15:0] $end
$var reg 1 ) data_rden1 $end
$var reg 1 * data_rden2 $end
$var reg 1 + data_wren1 $end
$var reg 1 , data_wren2 $end
$var reg 1 - reset_n $end
$scope module RAM $end
$var wire 1 # RAM_full $end
$var wire 5 . addr_in1 [4:0] $end
$var wire 5 / addr_in2 [4:0] $end
$var wire 1 & clock $end
$var wire 16 0 data_in1 [15:0] $end
$var wire 16 1 data_in2 [15:0] $end
$var wire 1 ) data_rden1 $end
$var wire 1 * data_rden2 $end
$var wire 1 + data_wren1 $end
$var wire 1 , data_wren2 $end
$var wire 1 - reset_n $end
$var reg 16 2 data_out1 [15:0] $end
$var reg 16 3 data_out2 [15:0] $end
$var integer 32 4 i [31:0] $end
$upscope $end
$upscope $end
$enddefinitions $end
#0
$dumpvars
b100000 4
b0 3
b0 2
b0 1
b0 0
b0 /
b0 .
0-
0,
0+
0*
0)
b0 (
b0 '
0&
b0 %
b0 $
0#
b0 "
b0 !
$end
#10000
b100000 4
1&
#20000
0&
#30000
b100000 4
1&
#40000
0&
#50000
b100000 4
1&
#60000
0&
#70000
b100000 4
1&
#80000
0&
#90000
b100000 4
1&
#100000
0&
#110000
b100000 4
1&
#120000
0&
#130000
b100000 4
1&
#140000
0&
#150000
b100000 4
1&
#160000
0&
#170000
b100000 4
1&
#180000
0&
#190000
b100000 4
1&
#200000
0&
#210000
b100000 4
1&
#220000
0&
#230000
b100000 4
1&
#240000
0&
#250000
b100000 4
1&
#260000
0&
#270000
b100000 4
1&
#280000
0&
#290000
b100000 4
1&
#300000
0&
#310000
b100000 4
1&
#320000
0&
#330000
b100000 4
1&
#340000
0&
#350000
b100000 4
1&
#360000
0&
#370000
b100000 4
1&
#380000
0&
#390000
b100000 4
1&
#400000
0&
#410000
b100000 4
1&
#420000
0&
#430000
b100000 4
1&
#440000
0&
#450000
b100000 4
1&
#460000
0&
#470000
b100000 4
1&
#480000
0&
#490000
b100000 4
1&
#500000
0&
#510000
b100000 4
1&
#520000
0&
#530000
b100000 4
1&
#540000
0&
#550000
b100000 4
1&
#560000
0&
#570000
b100000 4
1&
#580000
0&
#590000
b100000 4
1&
#600000
0&
#610000
b100000 4
1&
#620000
0&
#630000
b100000 4
1&
#640000
0&
#650000
b100000 4
1&
#660000
0&
#670000
b100000 4
1&
#680000
0&
#690000
b100000 4
1&
#700000
0&
#710000
b100000 4
1&
#720000
0&
#730000
b100000 4
1&
#740000
0&
#750000
b100000 4
1&
#760000
0&
#770000
b100000 4
1&
#780000
0&
#790000
b100000 4
1&
#800000
0&
#810000
b100000 4
1&
#820000
0&
#830000
b100000 4
1&
#840000
0&
#850000
b100000 4
1&
#860000
0&
#870000
b100000 4
1&
#880000
0&
#890000
b100000 4
1&
#900000
0&
#910000
b100000 4
1&
#920000
0&
#930000
b100000 4
1&
#940000
0&
#950000
b100000 4
1&
#960000
0&
#970000
b100000 4
1&
#980000
0&
#990000
b100000 4
1&
#1000000
0&
1-
#1010000
1&
#1020000
0&
#1030000
1&
#1040000
0&
1+
#1050000
1&
#1060000
0&
b1010101111001101 '
b1010101111001101 0
#1070000
1&
#1080000
0&
0+
#1090000
1&
#1100000
0&
b1 %
b1 /
#1110000
1&
#1120000
0&
1,
#1130000
1&
#1140000
0&
b1110111100000001 (
b1110111100000001 1
#1150000
1&
#1160000
0&
0,
#1170000
1&
#1180000
0&
b1 $
b1 .
#1190000
1&
#1200000
0&
1)
#1210000
b1110111100000001 "
b1110111100000001 2
1&
#1220000
0&
#1230000
1&
#1240000
0&
0)
#1250000
1&
#1260000
0&
b0 %
b0 /
#1270000
1&
#1280000
0&
1*
#1290000
b1010101111001101 !
b1010101111001101 3
1&
#1300000
0&
#1310000
1&
#1320000
0&
0*
